%YAML 1.1
%TAG !u! tag:unity3d.com,2011:
--- !u!114 &11400000
MonoBehaviour:
  m_ObjectHideFlags: 0
  m_CorrespondingSourceObject: {fileID: 0}
  m_PrefabInstance: {fileID: 0}
  m_PrefabAsset: {fileID: 0}
  m_GameObject: {fileID: 0}
  m_Enabled: 1
  m_EditorHideFlags: 0
  m_Script: {fileID: 11500000, guid: f3846af75997c6c4db33cefd6e348028, type: 3}
  m_Name: PatrolState
  m_EditorClassIdentifier: 
  actions:
  - {fileID: 11400000, guid: 295188d7d426292438cd2494e6f4162c, type: 2}
  transitions:
  - decision: {fileID: 11400000, guid: 73afe4c09c88ed14f93b284111aec521, type: 2}
    trueState: {fileID: 11400000, guid: 5bbf0983417e1e14f9430d795eb99c3a, type: 2}
    falseState: {fileID: 11400000}
  sceneGizmoColor: {r: 0.5, g: 0.5, b: 0.5, a: 1}
